<svg xmlns="http://www.w3.org/2000/svg" width="10" height="12" viewBox="0 0 10 12">
    <path fill="#787C87" fill-rule="nonzero" d="M4.934 6.862a.094.094 0 0 1 .132 0l3.474 3.473a.563.563 0 0 0 .795-.796L5.863 6.066a.094.094 0 0 1 0-.133L9.335 2.46a.562.562 0 1 0-.795-.795L5.066 5.137a.094.094 0 0 1-.132 0L1.46 1.665a.563.563 0 0 0-.795.795l3.473 3.473a.094.094 0 0 1 0 .133L.665 9.54a.562.562 0 1 0 .795.796l3.474-3.473z"/>
</svg>
